%YAML 1.1
%TAG !u! tag:unity3d.com,2011:
--- !u!1001 &8059038830160957281
PrefabInstance:
  m_ObjectHideFlags: 0
  serializedVersion: 2
  m_Modification:
    serializedVersion: 3
    m_TransformParent: {fileID: 0}
    m_Modifications:
    - target: {fileID: 1122535255942065100, guid: b9a06bc93a28d584f9a7e747243d971f, type: 3}
      propertyPath: m_Name
      value: AreaEditorObject
      objectReference: {fileID: 0}
    - target: {fileID: 4097146722315110770, guid: b9a06bc93a28d584f9a7e747243d971f, type: 3}
      propertyPath: myMeshRenderer
      value: 
      objectReference: {fileID: 1842830127190280656}
    - target: {fileID: 4097146722315110770, guid: b9a06bc93a28d584f9a7e747243d971f, type: 3}
      propertyPath: normalMaterials.Array.data[0]
      value: 
      objectReference: {fileID: 2100000, guid: 8f960863b3f3ae54ab527987d445a0eb, type: 2}
    - target: {fileID: 4097146722315110770, guid: b9a06bc93a28d584f9a7e747243d971f, type: 3}
      propertyPath: normalMaterials.Array.data[1]
      value: 
      objectReference: {fileID: 2100000, guid: 247e8a6fed9e3ab46a7c4a73c2587796, type: 2}
    - target: {fileID: 4097146722315110770, guid: b9a06bc93a28d584f9a7e747243d971f, type: 3}
      propertyPath: normalMaterials.Array.data[2]
      value: 
      objectReference: {fileID: 2100000, guid: 53abcd301b99d4a448aed6759b18dfb8, type: 2}
    - target: {fileID: 4097146722315110770, guid: b9a06bc93a28d584f9a7e747243d971f, type: 3}
      propertyPath: normalMaterials.Array.data[3]
      value: 
      objectReference: {fileID: 2100000, guid: 99013eac898b0cc408dd3e941d6db2eb, type: 2}
    - target: {fileID: 4097146722315110770, guid: b9a06bc93a28d584f9a7e747243d971f, type: 3}
      propertyPath: shieldMaterials.Array.data[0]
      value: 
      objectReference: {fileID: 2100000, guid: 962c4120b32339344ba8f988fb755054, type: 2}
    - target: {fileID: 4097146722315110770, guid: b9a06bc93a28d584f9a7e747243d971f, type: 3}
      propertyPath: shieldMaterials.Array.data[1]
      value: 
      objectReference: {fileID: 2100000, guid: 7b5aca9cdfcc10b459c8c16824bc3aec, type: 2}
    - target: {fileID: 4097146722315110770, guid: b9a06bc93a28d584f9a7e747243d971f, type: 3}
      propertyPath: shieldMaterials.Array.data[2]
      value: 
      objectReference: {fileID: 2100000, guid: 2b1655cfb48a1d54ca346a34f53af90e, type: 2}
    - target: {fileID: 4097146722315110770, guid: b9a06bc93a28d584f9a7e747243d971f, type: 3}
      propertyPath: shieldMaterials.Array.data[3]
      value: 
      objectReference: {fileID: 2100000, guid: ca53253dbf3e66645849fb0370dd6b4c, type: 2}
    - target: {fileID: 6778512573785314424, guid: b9a06bc93a28d584f9a7e747243d971f, type: 3}
      propertyPath: m_RootOrder
      value: 0
      objectReference: {fileID: 0}
    - target: {fileID: 6778512573785314424, guid: b9a06bc93a28d584f9a7e747243d971f, type: 3}
      propertyPath: m_LocalPosition.x
      value: 0
      objectReference: {fileID: 0}
    - target: {fileID: 6778512573785314424, guid: b9a06bc93a28d584f9a7e747243d971f, type: 3}
      propertyPath: m_LocalPosition.y
      value: 0
      objectReference: {fileID: 0}
    - target: {fileID: 6778512573785314424, guid: b9a06bc93a28d584f9a7e747243d971f, type: 3}
      propertyPath: m_LocalPosition.z
      value: 0
      objectReference: {fileID: 0}
    - target: {fileID: 6778512573785314424, guid: b9a06bc93a28d584f9a7e747243d971f, type: 3}
      propertyPath: m_LocalRotation.w
      value: 1
      objectReference: {fileID: 0}
    - target: {fileID: 6778512573785314424, guid: b9a06bc93a28d584f9a7e747243d971f, type: 3}
      propertyPath: m_LocalRotation.x
      value: 0
      objectReference: {fileID: 0}
    - target: {fileID: 6778512573785314424, guid: b9a06bc93a28d584f9a7e747243d971f, type: 3}
      propertyPath: m_LocalRotation.y
      value: 0
      objectReference: {fileID: 0}
    - target: {fileID: 6778512573785314424, guid: b9a06bc93a28d584f9a7e747243d971f, type: 3}
      propertyPath: m_LocalRotation.z
      value: 0
      objectReference: {fileID: 0}
    - target: {fileID: 6778512573785314424, guid: b9a06bc93a28d584f9a7e747243d971f, type: 3}
      propertyPath: m_LocalEulerAnglesHint.x
      value: 0
      objectReference: {fileID: 0}
    - target: {fileID: 6778512573785314424, guid: b9a06bc93a28d584f9a7e747243d971f, type: 3}
      propertyPath: m_LocalEulerAnglesHint.y
      value: 0
      objectReference: {fileID: 0}
    - target: {fileID: 6778512573785314424, guid: b9a06bc93a28d584f9a7e747243d971f, type: 3}
      propertyPath: m_LocalEulerAnglesHint.z
      value: 0
      objectReference: {fileID: 0}
    m_RemovedComponents: []
    m_RemovedGameObjects: []
    m_AddedGameObjects: []
    m_AddedComponents:
    - targetCorrespondingSourceObject: {fileID: 1122535255942065100, guid: b9a06bc93a28d584f9a7e747243d971f, type: 3}
      insertIndex: -1
      addedObject: {fileID: 4640553850218114532}
  m_SourcePrefab: {fileID: 100100000, guid: b9a06bc93a28d584f9a7e747243d971f, type: 3}
--- !u!23 &1842830127190280656 stripped
MeshRenderer:
  m_CorrespondingSourceObject: {fileID: 8522069584617031345, guid: b9a06bc93a28d584f9a7e747243d971f, type: 3}
  m_PrefabInstance: {fileID: 8059038830160957281}
  m_PrefabAsset: {fileID: 0}
--- !u!1 &6936527214793303213 stripped
GameObject:
  m_CorrespondingSourceObject: {fileID: 1122535255942065100, guid: b9a06bc93a28d584f9a7e747243d971f, type: 3}
  m_PrefabInstance: {fileID: 8059038830160957281}
  m_PrefabAsset: {fileID: 0}
--- !u!114 &4640553850218114532
MonoBehaviour:
  m_ObjectHideFlags: 0
  m_CorrespondingSourceObject: {fileID: 0}
  m_PrefabInstance: {fileID: 0}
  m_PrefabAsset: {fileID: 0}
  m_GameObject: {fileID: 6936527214793303213}
  m_Enabled: 1
  m_EditorHideFlags: 0
  m_Script: {fileID: 11500000, guid: 60ecfd19a5ec27841a5b9a0b0b17fa9c, type: 3}
  m_Name: 
  m_EditorClassIdentifier: 
  manager: {fileID: 0}
  objectFactory: {fileID: 0}
  gridPosition: {x: 0, y: 0}
  gridSize: {x: 0, y: 0}
  controller: {fileID: 0}
  areaLayer: {fileID: 0}
  areaType: 0
