%YAML 1.1
%TAG !u! tag:unity3d.com,2011:
--- !u!1001 &2890993168308441503
PrefabInstance:
  m_ObjectHideFlags: 0
  serializedVersion: 2
  m_Modification:
    serializedVersion: 3
    m_TransformParent: {fileID: 0}
    m_Modifications:
    - target: {fileID: 288431883521680134, guid: 6279d9eff66258d4f91c2da2aeefb24f, type: 3}
      propertyPath: m_RootOrder
      value: 8
      objectReference: {fileID: 0}
    - target: {fileID: 288431883521680134, guid: 6279d9eff66258d4f91c2da2aeefb24f, type: 3}
      propertyPath: m_LocalPosition.x
      value: 0
      objectReference: {fileID: 0}
    - target: {fileID: 288431883521680134, guid: 6279d9eff66258d4f91c2da2aeefb24f, type: 3}
      propertyPath: m_LocalPosition.y
      value: 0
      objectReference: {fileID: 0}
    - target: {fileID: 288431883521680134, guid: 6279d9eff66258d4f91c2da2aeefb24f, type: 3}
      propertyPath: m_LocalPosition.z
      value: 0
      objectReference: {fileID: 0}
    - target: {fileID: 288431883521680134, guid: 6279d9eff66258d4f91c2da2aeefb24f, type: 3}
      propertyPath: m_LocalRotation.w
      value: 1
      objectReference: {fileID: 0}
    - target: {fileID: 288431883521680134, guid: 6279d9eff66258d4f91c2da2aeefb24f, type: 3}
      propertyPath: m_LocalRotation.x
      value: 0
      objectReference: {fileID: 0}
    - target: {fileID: 288431883521680134, guid: 6279d9eff66258d4f91c2da2aeefb24f, type: 3}
      propertyPath: m_LocalRotation.y
      value: 0
      objectReference: {fileID: 0}
    - target: {fileID: 288431883521680134, guid: 6279d9eff66258d4f91c2da2aeefb24f, type: 3}
      propertyPath: m_LocalRotation.z
      value: 0
      objectReference: {fileID: 0}
    - target: {fileID: 288431883521680134, guid: 6279d9eff66258d4f91c2da2aeefb24f, type: 3}
      propertyPath: m_LocalEulerAnglesHint.x
      value: 0
      objectReference: {fileID: 0}
    - target: {fileID: 288431883521680134, guid: 6279d9eff66258d4f91c2da2aeefb24f, type: 3}
      propertyPath: m_LocalEulerAnglesHint.y
      value: 0
      objectReference: {fileID: 0}
    - target: {fileID: 288431883521680134, guid: 6279d9eff66258d4f91c2da2aeefb24f, type: 3}
      propertyPath: m_LocalEulerAnglesHint.z
      value: 0
      objectReference: {fileID: 0}
    - target: {fileID: 7338439503985489823, guid: 6279d9eff66258d4f91c2da2aeefb24f, type: 3}
      propertyPath: m_Name
      value: GoalEditorObject Variant
      objectReference: {fileID: 0}
    m_RemovedComponents: []
    m_RemovedGameObjects: []
    m_AddedGameObjects: []
    m_AddedComponents:
    - targetCorrespondingSourceObject: {fileID: 7338439503985489823, guid: 6279d9eff66258d4f91c2da2aeefb24f, type: 3}
      insertIndex: -1
      addedObject: {fileID: 6089723330392910725}
  m_SourcePrefab: {fileID: 100100000, guid: 6279d9eff66258d4f91c2da2aeefb24f, type: 3}
--- !u!1 &5605153190202091008 stripped
GameObject:
  m_CorrespondingSourceObject: {fileID: 7338439503985489823, guid: 6279d9eff66258d4f91c2da2aeefb24f, type: 3}
  m_PrefabInstance: {fileID: 2890993168308441503}
  m_PrefabAsset: {fileID: 0}
--- !u!114 &6089723330392910725
MonoBehaviour:
  m_ObjectHideFlags: 0
  m_CorrespondingSourceObject: {fileID: 0}
  m_PrefabInstance: {fileID: 0}
  m_PrefabAsset: {fileID: 0}
  m_GameObject: {fileID: 5605153190202091008}
  m_Enabled: 1
  m_EditorHideFlags: 0
  m_Script: {fileID: 11500000, guid: 0829221c9d6e8934bb0359e9003616c8, type: 3}
  m_Name: 
  m_EditorClassIdentifier: 
  manager: {fileID: 0}
  objectFactory: {fileID: 0}
  gridPosition: {x: 0, y: 0}
  gridSize: {x: 0, y: 0}
  controller: {fileID: 0}
  objectsLayer: {fileID: 0}
