%YAML 1.1
%TAG !u! tag:unity3d.com,2011:
--- !u!1001 &4521321586817741610
PrefabInstance:
  m_ObjectHideFlags: 0
  serializedVersion: 2
  m_Modification:
    serializedVersion: 3
    m_TransformParent: {fileID: 0}
    m_Modifications:
    - target: {fileID: 6400007561015265997, guid: 21064c80b26a8a64fb16ac2f279bb801, type: 3}
      propertyPath: m_RootOrder
      value: 8
      objectReference: {fileID: 0}
    - target: {fileID: 6400007561015265997, guid: 21064c80b26a8a64fb16ac2f279bb801, type: 3}
      propertyPath: m_LocalScale.y
      value: 0.5
      objectReference: {fileID: 0}
    - target: {fileID: 6400007561015265997, guid: 21064c80b26a8a64fb16ac2f279bb801, type: 3}
      propertyPath: m_LocalPosition.x
      value: 0
      objectReference: {fileID: 0}
    - target: {fileID: 6400007561015265997, guid: 21064c80b26a8a64fb16ac2f279bb801, type: 3}
      propertyPath: m_LocalPosition.y
      value: 0
      objectReference: {fileID: 0}
    - target: {fileID: 6400007561015265997, guid: 21064c80b26a8a64fb16ac2f279bb801, type: 3}
      propertyPath: m_LocalPosition.z
      value: 0
      objectReference: {fileID: 0}
    - target: {fileID: 6400007561015265997, guid: 21064c80b26a8a64fb16ac2f279bb801, type: 3}
      propertyPath: m_LocalRotation.w
      value: 1
      objectReference: {fileID: 0}
    - target: {fileID: 6400007561015265997, guid: 21064c80b26a8a64fb16ac2f279bb801, type: 3}
      propertyPath: m_LocalRotation.x
      value: 0
      objectReference: {fileID: 0}
    - target: {fileID: 6400007561015265997, guid: 21064c80b26a8a64fb16ac2f279bb801, type: 3}
      propertyPath: m_LocalRotation.y
      value: 0
      objectReference: {fileID: 0}
    - target: {fileID: 6400007561015265997, guid: 21064c80b26a8a64fb16ac2f279bb801, type: 3}
      propertyPath: m_LocalRotation.z
      value: 0
      objectReference: {fileID: 0}
    - target: {fileID: 6400007561015265997, guid: 21064c80b26a8a64fb16ac2f279bb801, type: 3}
      propertyPath: m_LocalEulerAnglesHint.x
      value: 0
      objectReference: {fileID: 0}
    - target: {fileID: 6400007561015265997, guid: 21064c80b26a8a64fb16ac2f279bb801, type: 3}
      propertyPath: m_LocalEulerAnglesHint.y
      value: 0
      objectReference: {fileID: 0}
    - target: {fileID: 6400007561015265997, guid: 21064c80b26a8a64fb16ac2f279bb801, type: 3}
      propertyPath: m_LocalEulerAnglesHint.z
      value: 0
      objectReference: {fileID: 0}
    - target: {fileID: 8210274398447841228, guid: 21064c80b26a8a64fb16ac2f279bb801, type: 3}
      propertyPath: m_Name
      value: HandleEditorObject Variant
      objectReference: {fileID: 0}
    m_RemovedComponents: []
    m_RemovedGameObjects: []
    m_AddedGameObjects: []
    m_AddedComponents:
    - targetCorrespondingSourceObject: {fileID: 8210274398447841228, guid: 21064c80b26a8a64fb16ac2f279bb801, type: 3}
      insertIndex: -1
      addedObject: {fileID: 8607505237342236554}
  m_SourcePrefab: {fileID: 100100000, guid: 21064c80b26a8a64fb16ac2f279bb801, type: 3}
--- !u!1 &5714565553304378598 stripped
GameObject:
  m_CorrespondingSourceObject: {fileID: 8210274398447841228, guid: 21064c80b26a8a64fb16ac2f279bb801, type: 3}
  m_PrefabInstance: {fileID: 4521321586817741610}
  m_PrefabAsset: {fileID: 0}
--- !u!114 &8607505237342236554
MonoBehaviour:
  m_ObjectHideFlags: 0
  m_CorrespondingSourceObject: {fileID: 0}
  m_PrefabInstance: {fileID: 0}
  m_PrefabAsset: {fileID: 0}
  m_GameObject: {fileID: 5714565553304378598}
  m_Enabled: 1
  m_EditorHideFlags: 0
  m_Script: {fileID: 11500000, guid: 40506a96fbf6a9e4e80c60be43f2f747, type: 3}
  m_Name: 
  m_EditorClassIdentifier: 
  manager: {fileID: 0}
  objectFactory: {fileID: 0}
  gridPosition: {x: 0, y: 0}
  gridSize: {x: 0, y: 0}
  controller: {fileID: 0}
  areaLayer: {fileID: 0}
  areaType: 0
  handleType: 1
