%YAML 1.1
%TAG !u! tag:unity3d.com,2011:
--- !u!1001 &2848289235930731226
PrefabInstance:
  m_ObjectHideFlags: 0
  serializedVersion: 2
  m_Modification:
    serializedVersion: 3
    m_TransformParent: {fileID: 0}
    m_Modifications:
    - target: {fileID: 952233370781214833, guid: efb23f5179be097459441d45cd9e5136, type: 3}
      propertyPath: m_Name
      value: BackStageObject Variant
      objectReference: {fileID: 0}
    - target: {fileID: 3317046057118901795, guid: efb23f5179be097459441d45cd9e5136, type: 3}
      propertyPath: m_RootOrder
      value: 6
      objectReference: {fileID: 0}
    - target: {fileID: 3317046057118901795, guid: efb23f5179be097459441d45cd9e5136, type: 3}
      propertyPath: m_LocalPosition.x
      value: 0
      objectReference: {fileID: 0}
    - target: {fileID: 3317046057118901795, guid: efb23f5179be097459441d45cd9e5136, type: 3}
      propertyPath: m_LocalPosition.y
      value: 0
      objectReference: {fileID: 0}
    - target: {fileID: 3317046057118901795, guid: efb23f5179be097459441d45cd9e5136, type: 3}
      propertyPath: m_LocalPosition.z
      value: 0
      objectReference: {fileID: 0}
    - target: {fileID: 3317046057118901795, guid: efb23f5179be097459441d45cd9e5136, type: 3}
      propertyPath: m_LocalRotation.w
      value: 1
      objectReference: {fileID: 0}
    - target: {fileID: 3317046057118901795, guid: efb23f5179be097459441d45cd9e5136, type: 3}
      propertyPath: m_LocalRotation.x
      value: 0
      objectReference: {fileID: 0}
    - target: {fileID: 3317046057118901795, guid: efb23f5179be097459441d45cd9e5136, type: 3}
      propertyPath: m_LocalRotation.y
      value: 0
      objectReference: {fileID: 0}
    - target: {fileID: 3317046057118901795, guid: efb23f5179be097459441d45cd9e5136, type: 3}
      propertyPath: m_LocalRotation.z
      value: 0
      objectReference: {fileID: 0}
    - target: {fileID: 3317046057118901795, guid: efb23f5179be097459441d45cd9e5136, type: 3}
      propertyPath: m_LocalEulerAnglesHint.x
      value: 0
      objectReference: {fileID: 0}
    - target: {fileID: 3317046057118901795, guid: efb23f5179be097459441d45cd9e5136, type: 3}
      propertyPath: m_LocalEulerAnglesHint.y
      value: 0
      objectReference: {fileID: 0}
    - target: {fileID: 3317046057118901795, guid: efb23f5179be097459441d45cd9e5136, type: 3}
      propertyPath: m_LocalEulerAnglesHint.z
      value: 0
      objectReference: {fileID: 0}
    - target: {fileID: 6693347678641560368, guid: efb23f5179be097459441d45cd9e5136, type: 3}
      propertyPath: myMeshRenderer
      value: 
      objectReference: {fileID: 8670430498974713574}
    - target: {fileID: 6693347678641560368, guid: efb23f5179be097459441d45cd9e5136, type: 3}
      propertyPath: materials.Array.size
      value: 3
      objectReference: {fileID: 0}
    - target: {fileID: 6693347678641560368, guid: efb23f5179be097459441d45cd9e5136, type: 3}
      propertyPath: materials.Array.data[0]
      value: 
      objectReference: {fileID: 2100000, guid: 3f4401a8edc47ad43b952e80e5e32126, type: 2}
    - target: {fileID: 6693347678641560368, guid: efb23f5179be097459441d45cd9e5136, type: 3}
      propertyPath: materials.Array.data[1]
      value: 
      objectReference: {fileID: 2100000, guid: bb0d1c1b8981fee419f055af6d976b13, type: 2}
    - target: {fileID: 6693347678641560368, guid: efb23f5179be097459441d45cd9e5136, type: 3}
      propertyPath: materials.Array.data[2]
      value: 
      objectReference: {fileID: 2100000, guid: 38c1c1330f51d6a4db73ca54a66218a9, type: 2}
    m_RemovedComponents: []
    m_RemovedGameObjects: []
    m_AddedGameObjects: []
    m_AddedComponents:
    - targetCorrespondingSourceObject: {fileID: 952233370781214833, guid: efb23f5179be097459441d45cd9e5136, type: 3}
      insertIndex: -1
      addedObject: {fileID: 4745953535342107905}
  m_SourcePrefab: {fileID: 100100000, guid: efb23f5179be097459441d45cd9e5136, type: 3}
--- !u!1 &3075999007266814635 stripped
GameObject:
  m_CorrespondingSourceObject: {fileID: 952233370781214833, guid: efb23f5179be097459441d45cd9e5136, type: 3}
  m_PrefabInstance: {fileID: 2848289235930731226}
  m_PrefabAsset: {fileID: 0}
--- !u!114 &4745953535342107905
MonoBehaviour:
  m_ObjectHideFlags: 0
  m_CorrespondingSourceObject: {fileID: 0}
  m_PrefabInstance: {fileID: 0}
  m_PrefabAsset: {fileID: 0}
  m_GameObject: {fileID: 3075999007266814635}
  m_Enabled: 1
  m_EditorHideFlags: 0
  m_Script: {fileID: 11500000, guid: cfa29b971268b964e8f16ab85cfed7a1, type: 3}
  m_Name: 
  m_EditorClassIdentifier: 
--- !u!23 &8670430498974713574 stripped
MeshRenderer:
  m_CorrespondingSourceObject: {fileID: 6905330366100378684, guid: efb23f5179be097459441d45cd9e5136, type: 3}
  m_PrefabInstance: {fileID: 2848289235930731226}
  m_PrefabAsset: {fileID: 0}
