GridSize,22,14
ChildDatas
ObjectsLayer
ChildDatas
Back
GridPosition,1,1,GridSize,20,12,MaterialIndex,1
Player
GridPosition,19,11,MyMoveDirection,Left
Goal
GridPosition,17,3
Enemy1
GridPosition,7,4
Enemy1
GridPosition,9,3
Enemy1
GridPosition,6,10
BlockLayer
MyBlockType,Fixed
ChildDatas
Block
GridPosition,0,0
Block
GridPosition,0,1
Block
GridPosition,0,2
Block
GridPosition,0,3
Block
GridPosition,0,4
Block
GridPosition,0,5
Block
GridPosition,0,6
Block
GridPosition,0,7
Block
GridPosition,0,8
Block
GridPosition,0,9
Block
GridPosition,0,10
Block
GridPosition,0,11
Block
GridPosition,0,12
Block
GridPosition,0,13
Block
GridPosition,21,0
Block
GridPosition,21,1
Block
GridPosition,21,2
Block
GridPosition,21,3
Block
GridPosition,21,4
Block
GridPosition,21,5
Block
GridPosition,21,6
Block
GridPosition,21,7
Block
GridPosition,21,8
Block
GridPosition,21,9
Block
GridPosition,21,10
Block
GridPosition,21,11
Block
GridPosition,21,12
Block
GridPosition,21,13
Block
GridPosition,1,13
Block
GridPosition,2,13
Block
GridPosition,3,13
Block
GridPosition,4,13
Block
GridPosition,5,13
Block
GridPosition,6,13
Block
GridPosition,7,13
Block
GridPosition,8,13
Block
GridPosition,9,13
Block
GridPosition,10,13
Block
GridPosition,11,13
Block
GridPosition,12,13
Block
GridPosition,13,13
Block
GridPosition,14,13
Block
GridPosition,15,13
Block
GridPosition,16,13
Block
GridPosition,17,13
Block
GridPosition,18,13
Block
GridPosition,19,13
Block
GridPosition,20,13
Block
GridPosition,8,2
Block
GridPosition,9,2
Block
GridPosition,10,2
Block
GridPosition,17,2
Block
GridPosition,18,2
Block
GridPosition,19,2
Block
GridPosition,20,2
Block
GridPosition,17,10
Block
GridPosition,18,10
Block
GridPosition,19,10
Block
GridPosition,20,10
Block
GridPosition,14,9
Block
GridPosition,15,9
Block
GridPosition,16,9
Block
GridPosition,10,9
Block
GridPosition,11,9
Block
GridPosition,12,9
BlockLayer
MyBlockType,Red
ChildDatas
Block
GridPosition,6,9
Block
GridPosition,7,9
Block
GridPosition,8,9
Block
GridPosition,13,2
Block
GridPosition,14,2
BlockLayer
MyBlockType,Green
ChildDatas
BlockLayer
MyBlockType,Blue
ChildDatas
Block
GridPosition,1,4
Block
GridPosition,1,5
Block
GridPosition,2,4
Block
GridPosition,2,5
Block
GridPosition,3,4
Block
GridPosition,3,5
Block
GridPosition,4,4
Block
GridPosition,4,5
Block
GridPosition,5,3
Block
GridPosition,6,3
Block
GridPosition,7,3
AreaLayer
MyAreaType,Fixed
ChildDatas
Area
GridPosition,0,0,GridSize,1,1,MyAreaType,Fixed
Area
GridPosition,0,1,GridSize,1,1,MyAreaType,Fixed
Area
GridPosition,0,2,GridSize,1,1,MyAreaType,Fixed
Area
GridPosition,0,3,GridSize,1,1,MyAreaType,Fixed
Area
GridPosition,0,4,GridSize,1,1,MyAreaType,Fixed
Area
GridPosition,0,5,GridSize,1,1,MyAreaType,Fixed
Area
GridPosition,0,6,GridSize,1,1,MyAreaType,Fixed
Area
GridPosition,0,7,GridSize,1,1,MyAreaType,Fixed
Area
GridPosition,0,8,GridSize,1,1,MyAreaType,Fixed
Area
GridPosition,0,9,GridSize,1,1,MyAreaType,Fixed
Area
GridPosition,0,10,GridSize,1,1,MyAreaType,Fixed
Area
GridPosition,0,11,GridSize,1,1,MyAreaType,Fixed
Area
GridPosition,0,12,GridSize,1,1,MyAreaType,Fixed
Area
GridPosition,0,13,GridSize,1,1,MyAreaType,Fixed
Area
GridPosition,21,0,GridSize,1,1,MyAreaType,Fixed
Area
GridPosition,21,1,GridSize,1,1,MyAreaType,Fixed
Area
GridPosition,21,2,GridSize,1,1,MyAreaType,Fixed
Area
GridPosition,21,3,GridSize,1,1,MyAreaType,Fixed
Area
GridPosition,21,4,GridSize,1,1,MyAreaType,Fixed
Area
GridPosition,21,5,GridSize,1,1,MyAreaType,Fixed
Area
GridPosition,21,6,GridSize,1,1,MyAreaType,Fixed
Area
GridPosition,21,7,GridSize,1,1,MyAreaType,Fixed
Area
GridPosition,21,8,GridSize,1,1,MyAreaType,Fixed
Area
GridPosition,21,9,GridSize,1,1,MyAreaType,Fixed
Area
GridPosition,21,10,GridSize,1,1,MyAreaType,Fixed
Area
GridPosition,21,11,GridSize,1,1,MyAreaType,Fixed
Area
GridPosition,21,12,GridSize,1,1,MyAreaType,Fixed
Area
GridPosition,21,13,GridSize,1,1,MyAreaType,Fixed
Area
GridPosition,1,13,GridSize,1,1,MyAreaType,Fixed
Area
GridPosition,2,13,GridSize,1,1,MyAreaType,Fixed
Area
GridPosition,3,13,GridSize,1,1,MyAreaType,Fixed
Area
GridPosition,4,13,GridSize,1,1,MyAreaType,Fixed
Area
GridPosition,5,13,GridSize,1,1,MyAreaType,Fixed
Area
GridPosition,6,13,GridSize,1,1,MyAreaType,Fixed
Area
GridPosition,7,13,GridSize,1,1,MyAreaType,Fixed
Area
GridPosition,8,13,GridSize,1,1,MyAreaType,Fixed
Area
GridPosition,9,13,GridSize,1,1,MyAreaType,Fixed
Area
GridPosition,10,13,GridSize,1,1,MyAreaType,Fixed
Area
GridPosition,11,13,GridSize,1,1,MyAreaType,Fixed
Area
GridPosition,12,13,GridSize,1,1,MyAreaType,Fixed
Area
GridPosition,13,13,GridSize,1,1,MyAreaType,Fixed
Area
GridPosition,14,13,GridSize,1,1,MyAreaType,Fixed
Area
GridPosition,15,13,GridSize,1,1,MyAreaType,Fixed
Area
GridPosition,16,13,GridSize,1,1,MyAreaType,Fixed
Area
GridPosition,17,13,GridSize,1,1,MyAreaType,Fixed
Area
GridPosition,18,13,GridSize,1,1,MyAreaType,Fixed
Area
GridPosition,19,13,GridSize,1,1,MyAreaType,Fixed
Area
GridPosition,20,13,GridSize,1,1,MyAreaType,Fixed
AreaLayer
MyAreaType,Blue
ChildDatas
Area
GridPosition,1,4,GridSize,1,1,MyAreaType,Blue
Area
GridPosition,1,5,GridSize,1,1,MyAreaType,Blue
Area
GridPosition,1,6,GridSize,1,1,MyAreaType,Blue
Area
GridPosition,1,7,GridSize,1,1,MyAreaType,Blue
Area
GridPosition,2,4,GridSize,1,1,MyAreaType,Blue
Area
GridPosition,2,5,GridSize,1,1,MyAreaType,Blue
Area
GridPosition,2,6,GridSize,1,1,MyAreaType,Blue
Area
GridPosition,2,7,GridSize,1,1,MyAreaType,Blue
Area
GridPosition,3,4,GridSize,1,1,MyAreaType,Blue
Area
GridPosition,3,5,GridSize,1,1,MyAreaType,Blue
Area
GridPosition,3,6,GridSize,1,1,MyAreaType,Blue
Area
GridPosition,3,7,GridSize,1,1,MyAreaType,Blue
Area
GridPosition,4,4,GridSize,1,1,MyAreaType,Blue
Area
GridPosition,4,5,GridSize,1,1,MyAreaType,Blue
Area
GridPosition,4,6,GridSize,1,1,MyAreaType,Blue
Area
GridPosition,4,7,GridSize,1,1,MyAreaType,Blue
Area
GridPosition,5,4,GridSize,1,1,MyAreaType,Blue
Area
GridPosition,5,5,GridSize,1,1,MyAreaType,Blue
Area
GridPosition,5,6,GridSize,1,1,MyAreaType,Blue
Area
GridPosition,5,7,GridSize,1,1,MyAreaType,Blue
Handle
GridPosition,1,7,MyAreaType,Blue,MyHandleType,MiddleVertical,LinkGroupNumber,-1
Handle
GridPosition,4,7,MyAreaType,Red,MyHandleType,MiddleHorizontal,LinkGroupNumber,-1
AreaLayer
MyAreaType,Red
ChildDatas
Area
GridPosition,8,1,GridSize,1,1,MyAreaType,Red
Area
GridPosition,8,2,GridSize,1,1,MyAreaType,Red
Area
GridPosition,8,3,GridSize,1,1,MyAreaType,Red
Area
GridPosition,8,4,GridSize,1,1,MyAreaType,Red
Area
GridPosition,9,1,GridSize,1,1,MyAreaType,Red
Area
GridPosition,9,2,GridSize,1,1,MyAreaType,Red
Area
GridPosition,9,3,GridSize,1,1,MyAreaType,Red
Area
GridPosition,9,4,GridSize,1,1,MyAreaType,Red
Area
GridPosition,10,1,GridSize,1,1,MyAreaType,Red
Area
GridPosition,10,2,GridSize,1,1,MyAreaType,Red
Area
GridPosition,10,3,GridSize,1,1,MyAreaType,Red
Area
GridPosition,10,4,GridSize,1,1,MyAreaType,Red
Handle
GridPosition,10,4,MyAreaType,Red,MyHandleType,MiddleHorizontal,LinkGroupNumber,-1
AreaLayer
MyAreaType,Red
ChildDatas
Area
GridPosition,10,8,GridSize,1,1,MyAreaType,Red
Area
GridPosition,10,9,GridSize,1,1,MyAreaType,Red
Area
GridPosition,10,10,GridSize,1,1,MyAreaType,Red
Area
GridPosition,10,11,GridSize,1,1,MyAreaType,Red
Area
GridPosition,11,8,GridSize,1,1,MyAreaType,Red
Area
GridPosition,11,9,GridSize,1,1,MyAreaType,Red
Area
GridPosition,11,10,GridSize,1,1,MyAreaType,Red
Area
GridPosition,11,11,GridSize,1,1,MyAreaType,Red
Area
GridPosition,12,8,GridSize,1,1,MyAreaType,Red
Area
GridPosition,12,9,GridSize,1,1,MyAreaType,Red
Area
GridPosition,12,10,GridSize,1,1,MyAreaType,Red
Area
GridPosition,12,11,GridSize,1,1,MyAreaType,Red
Area
GridPosition,13,8,GridSize,1,1,MyAreaType,Red
Area
GridPosition,13,9,GridSize,1,1,MyAreaType,Red
Area
GridPosition,13,10,GridSize,1,1,MyAreaType,Red
Area
GridPosition,13,11,GridSize,1,1,MyAreaType,Red
Handle
GridPosition,11,11,MyAreaType,Red,MyHandleType,MiddleHorizontal,LinkGroupNumber,-1
