%YAML 1.1
%TAG !u! tag:unity3d.com,2011:
--- !u!29 &1
OcclusionCullingSettings:
  m_ObjectHideFlags: 0
  serializedVersion: 2
  m_OcclusionBakeSettings:
    smallestOccluder: 5
    smallestHole: 0.25
    backfaceThreshold: 100
  m_SceneGUID: 00000000000000000000000000000000
  m_OcclusionCullingData: {fileID: 0}
--- !u!104 &2
RenderSettings:
  m_ObjectHideFlags: 0
  serializedVersion: 9
  m_Fog: 0
  m_FogColor: {r: 0.5, g: 0.5, b: 0.5, a: 1}
  m_FogMode: 3
  m_FogDensity: 0.01
  m_LinearFogStart: 0
  m_LinearFogEnd: 300
  m_AmbientSkyColor: {r: 0.212, g: 0.227, b: 0.259, a: 1}
  m_AmbientEquatorColor: {r: 0.114, g: 0.125, b: 0.133, a: 1}
  m_AmbientGroundColor: {r: 0.047, g: 0.043, b: 0.035, a: 1}
  m_AmbientIntensity: 1
  m_AmbientMode: 0
  m_SubtractiveShadowColor: {r: 0.42, g: 0.478, b: 0.627, a: 1}
  m_SkyboxMaterial: {fileID: 10304, guid: 0000000000000000f000000000000000, type: 0}
  m_HaloStrength: 0.5
  m_FlareStrength: 1
  m_FlareFadeSpeed: 3
  m_HaloTexture: {fileID: 0}
  m_SpotCookie: {fileID: 10001, guid: 0000000000000000e000000000000000, type: 0}
  m_DefaultReflectionMode: 0
  m_DefaultReflectionResolution: 128
  m_ReflectionBounces: 1
  m_ReflectionIntensity: 1
  m_CustomReflection: {fileID: 0}
  m_Sun: {fileID: 0}
  m_IndirectSpecularColor: {r: 0.18028378, g: 0.22571412, b: 0.30692285, a: 1}
  m_UseRadianceAmbientProbe: 0
--- !u!157 &3
LightmapSettings:
  m_ObjectHideFlags: 0
  serializedVersion: 12
  m_GIWorkflowMode: 1
  m_GISettings:
    serializedVersion: 2
    m_BounceScale: 1
    m_IndirectOutputScale: 1
    m_AlbedoBoost: 1
    m_EnvironmentLightingMode: 0
    m_EnableBakedLightmaps: 1
    m_EnableRealtimeLightmaps: 0
  m_LightmapEditorSettings:
    serializedVersion: 12
    m_Resolution: 2
    m_BakeResolution: 40
    m_AtlasSize: 1024
    m_AO: 0
    m_AOMaxDistance: 1
    m_CompAOExponent: 1
    m_CompAOExponentDirect: 0
    m_ExtractAmbientOcclusion: 0
    m_Padding: 2
    m_LightmapParameters: {fileID: 0}
    m_LightmapsBakeMode: 1
    m_TextureCompression: 1
    m_FinalGather: 0
    m_FinalGatherFiltering: 1
    m_FinalGatherRayCount: 256
    m_ReflectionCompression: 2
    m_MixedBakeMode: 2
    m_BakeBackend: 1
    m_PVRSampling: 1
    m_PVRDirectSampleCount: 32
    m_PVRSampleCount: 512
    m_PVRBounces: 2
    m_PVREnvironmentSampleCount: 256
    m_PVREnvironmentReferencePointCount: 2048
    m_PVRFilteringMode: 1
    m_PVRDenoiserTypeDirect: 1
    m_PVRDenoiserTypeIndirect: 1
    m_PVRDenoiserTypeAO: 1
    m_PVRFilterTypeDirect: 0
    m_PVRFilterTypeIndirect: 0
    m_PVRFilterTypeAO: 0
    m_PVREnvironmentMIS: 1
    m_PVRCulling: 1
    m_PVRFilteringGaussRadiusDirect: 1
    m_PVRFilteringGaussRadiusIndirect: 5
    m_PVRFilteringGaussRadiusAO: 2
    m_PVRFilteringAtrousPositionSigmaDirect: 0.5
    m_PVRFilteringAtrousPositionSigmaIndirect: 2
    m_PVRFilteringAtrousPositionSigmaAO: 1
    m_ExportTrainingData: 0
    m_TrainingDataDestination: TrainingData
    m_LightProbeSampleCountMultiplier: 4
  m_LightingDataAsset: {fileID: 0}
  m_LightingSettings: {fileID: 0}
--- !u!196 &4
NavMeshSettings:
  serializedVersion: 2
  m_ObjectHideFlags: 0
  m_BuildSettings:
    serializedVersion: 3
    agentTypeID: 0
    agentRadius: 0.5
    agentHeight: 2
    agentSlope: 45
    agentClimb: 0.4
    ledgeDropHeight: 0
    maxJumpAcrossDistance: 0
    minRegionArea: 2
    manualCellSize: 0
    cellSize: 0.16666667
    manualTileSize: 0
    tileSize: 256
    buildHeightMesh: 0
    maxJobWorkers: 0
    preserveTilesOutsideBounds: 0
    debug:
      m_Flags: 0
  m_NavMeshData: {fileID: 0}
--- !u!1001 &29958532
PrefabInstance:
  m_ObjectHideFlags: 0
  serializedVersion: 2
  m_Modification:
    serializedVersion: 3
    m_TransformParent: {fileID: 0}
    m_Modifications:
    - target: {fileID: 376274515878932857, guid: 63ab09bedf8b11b4daf84b1c2ef591c5, type: 3}
      propertyPath: areaLayerPool.Array.size
      value: 0
      objectReference: {fileID: 0}
    - target: {fileID: 376274515878932857, guid: 63ab09bedf8b11b4daf84b1c2ef591c5, type: 3}
      propertyPath: backObjectPool.Array.size
      value: 0
      objectReference: {fileID: 0}
    - target: {fileID: 376274515878932857, guid: 63ab09bedf8b11b4daf84b1c2ef591c5, type: 3}
      propertyPath: blockLayerPool.Array.size
      value: 0
      objectReference: {fileID: 0}
    - target: {fileID: 376274515878932857, guid: 63ab09bedf8b11b4daf84b1c2ef591c5, type: 3}
      propertyPath: goalObjectPool.Array.size
      value: 0
      objectReference: {fileID: 0}
    - target: {fileID: 376274515878932857, guid: 63ab09bedf8b11b4daf84b1c2ef591c5, type: 3}
      propertyPath: blockObjectPool.Array.size
      value: 0
      objectReference: {fileID: 0}
    - target: {fileID: 376274515878932857, guid: 63ab09bedf8b11b4daf84b1c2ef591c5, type: 3}
      propertyPath: areaLayerPool.Array.data[0]
      value: 
      objectReference: {fileID: 0}
    - target: {fileID: 376274515878932857, guid: 63ab09bedf8b11b4daf84b1c2ef591c5, type: 3}
      propertyPath: handleObjectPool.Array.size
      value: 0
      objectReference: {fileID: 0}
    - target: {fileID: 376274515878932857, guid: 63ab09bedf8b11b4daf84b1c2ef591c5, type: 3}
      propertyPath: objectsLayerPool.Array.size
      value: 0
      objectReference: {fileID: 0}
    - target: {fileID: 376274515878932857, guid: 63ab09bedf8b11b4daf84b1c2ef591c5, type: 3}
      propertyPath: playerObjectPool.Array.size
      value: 0
      objectReference: {fileID: 0}
    - target: {fileID: 376274515878932857, guid: 63ab09bedf8b11b4daf84b1c2ef591c5, type: 3}
      propertyPath: backObjectPool.Array.data[0]
      value: 
      objectReference: {fileID: 0}
    - target: {fileID: 376274515878932857, guid: 63ab09bedf8b11b4daf84b1c2ef591c5, type: 3}
      propertyPath: backObjectPool.Array.data[1]
      value: 
      objectReference: {fileID: 0}
    - target: {fileID: 376274515878932857, guid: 63ab09bedf8b11b4daf84b1c2ef591c5, type: 3}
      propertyPath: backObjectPool.Array.data[2]
      value: 
      objectReference: {fileID: 0}
    - target: {fileID: 376274515878932857, guid: 63ab09bedf8b11b4daf84b1c2ef591c5, type: 3}
      propertyPath: backObjectPool.Array.data[3]
      value: 
      objectReference: {fileID: 0}
    - target: {fileID: 376274515878932857, guid: 63ab09bedf8b11b4daf84b1c2ef591c5, type: 3}
      propertyPath: backObjectPool.Array.data[4]
      value: 
      objectReference: {fileID: 0}
    - target: {fileID: 376274515878932857, guid: 63ab09bedf8b11b4daf84b1c2ef591c5, type: 3}
      propertyPath: backObjectPool.Array.data[5]
      value: 
      objectReference: {fileID: 0}
    - target: {fileID: 376274515878932857, guid: 63ab09bedf8b11b4daf84b1c2ef591c5, type: 3}
      propertyPath: backObjectPool.Array.data[6]
      value: 
      objectReference: {fileID: 0}
    - target: {fileID: 376274515878932857, guid: 63ab09bedf8b11b4daf84b1c2ef591c5, type: 3}
      propertyPath: blockLayerPool.Array.data[0]
      value: 
      objectReference: {fileID: 0}
    - target: {fileID: 376274515878932857, guid: 63ab09bedf8b11b4daf84b1c2ef591c5, type: 3}
      propertyPath: blockLayerPool.Array.data[1]
      value: 
      objectReference: {fileID: 0}
    - target: {fileID: 376274515878932857, guid: 63ab09bedf8b11b4daf84b1c2ef591c5, type: 3}
      propertyPath: blockLayerPool.Array.data[2]
      value: 
      objectReference: {fileID: 0}
    - target: {fileID: 376274515878932857, guid: 63ab09bedf8b11b4daf84b1c2ef591c5, type: 3}
      propertyPath: blockLayerPool.Array.data[3]
      value: 
      objectReference: {fileID: 0}
    - target: {fileID: 376274515878932857, guid: 63ab09bedf8b11b4daf84b1c2ef591c5, type: 3}
      propertyPath: goalObjectPool.Array.data[0]
      value: 
      objectReference: {fileID: 0}
    - target: {fileID: 376274515878932857, guid: 63ab09bedf8b11b4daf84b1c2ef591c5, type: 3}
      propertyPath: goalObjectPool.Array.data[1]
      value: 
      objectReference: {fileID: 0}
    - target: {fileID: 376274515878932857, guid: 63ab09bedf8b11b4daf84b1c2ef591c5, type: 3}
      propertyPath: blockObjectPool.Array.data[0]
      value: 
      objectReference: {fileID: 0}
    - target: {fileID: 376274515878932857, guid: 63ab09bedf8b11b4daf84b1c2ef591c5, type: 3}
      propertyPath: blockObjectPool.Array.data[1]
      value: 
      objectReference: {fileID: 0}
    - target: {fileID: 376274515878932857, guid: 63ab09bedf8b11b4daf84b1c2ef591c5, type: 3}
      propertyPath: enemyObject_1_Pool.Array.size
      value: 0
      objectReference: {fileID: 0}
    - target: {fileID: 376274515878932857, guid: 63ab09bedf8b11b4daf84b1c2ef591c5, type: 3}
      propertyPath: handleObjectPool.Array.data[0]
      value: 
      objectReference: {fileID: 0}
    - target: {fileID: 376274515878932857, guid: 63ab09bedf8b11b4daf84b1c2ef591c5, type: 3}
      propertyPath: handleObjectPool.Array.data[1]
      value: 
      objectReference: {fileID: 0}
    - target: {fileID: 376274515878932857, guid: 63ab09bedf8b11b4daf84b1c2ef591c5, type: 3}
      propertyPath: objectsLayerPool.Array.data[0]
      value: 
      objectReference: {fileID: 0}
    - target: {fileID: 376274515878932857, guid: 63ab09bedf8b11b4daf84b1c2ef591c5, type: 3}
      propertyPath: playerObjectPool.Array.data[0]
      value: 
      objectReference: {fileID: 0}
    - target: {fileID: 376274515878932857, guid: 63ab09bedf8b11b4daf84b1c2ef591c5, type: 3}
      propertyPath: playerObjectPool.Array.data[1]
      value: 
      objectReference: {fileID: 0}
    - target: {fileID: 376274515878932857, guid: 63ab09bedf8b11b4daf84b1c2ef591c5, type: 3}
      propertyPath: playerObjectPool.Array.data[2]
      value: 
      objectReference: {fileID: 0}
    - target: {fileID: 376274515878932857, guid: 63ab09bedf8b11b4daf84b1c2ef591c5, type: 3}
      propertyPath: playerObjectPool.Array.data[3]
      value: 
      objectReference: {fileID: 0}
    - target: {fileID: 376274515878932857, guid: 63ab09bedf8b11b4daf84b1c2ef591c5, type: 3}
      propertyPath: playerObjectPool.Array.data[4]
      value: 
      objectReference: {fileID: 0}
    - target: {fileID: 376274515878932857, guid: 63ab09bedf8b11b4daf84b1c2ef591c5, type: 3}
      propertyPath: enemyObject_1_Pool.Array.data[0]
      value: 
      objectReference: {fileID: 0}
    - target: {fileID: 376274515878932857, guid: 63ab09bedf8b11b4daf84b1c2ef591c5, type: 3}
      propertyPath: enemyObject_1_Pool.Array.data[1]
      value: 
      objectReference: {fileID: 0}
    - target: {fileID: 376274515878932857, guid: 63ab09bedf8b11b4daf84b1c2ef591c5, type: 3}
      propertyPath: enemyObject_1_Pool.Array.data[2]
      value: 
      objectReference: {fileID: 0}
    - target: {fileID: 376274515878932857, guid: 63ab09bedf8b11b4daf84b1c2ef591c5, type: 3}
      propertyPath: enemyObject_1_Pool.Array.data[3]
      value: 
      objectReference: {fileID: 0}
    - target: {fileID: 376274515878932857, guid: 63ab09bedf8b11b4daf84b1c2ef591c5, type: 3}
      propertyPath: enemyObject_1_Pool.Array.data[4]
      value: 
      objectReference: {fileID: 0}
    - target: {fileID: 376274515878932857, guid: 63ab09bedf8b11b4daf84b1c2ef591c5, type: 3}
      propertyPath: enemyObject_1_Pool.Array.data[5]
      value: 
      objectReference: {fileID: 0}
    - target: {fileID: 376274515878932857, guid: 63ab09bedf8b11b4daf84b1c2ef591c5, type: 3}
      propertyPath: enemyObject_1_Pool.Array.data[6]
      value: 
      objectReference: {fileID: 0}
    - target: {fileID: 376274515878932857, guid: 63ab09bedf8b11b4daf84b1c2ef591c5, type: 3}
      propertyPath: enemyObject_1_Pool.Array.data[7]
      value: 
      objectReference: {fileID: 0}
    - target: {fileID: 376274515878932857, guid: 63ab09bedf8b11b4daf84b1c2ef591c5, type: 3}
      propertyPath: enemyObject_1_Pool.Array.data[8]
      value: 
      objectReference: {fileID: 0}
    - target: {fileID: 376274515878932857, guid: 63ab09bedf8b11b4daf84b1c2ef591c5, type: 3}
      propertyPath: enemyObject_1_Pool.Array.data[9]
      value: 
      objectReference: {fileID: 0}
    - target: {fileID: 376274515878932857, guid: 63ab09bedf8b11b4daf84b1c2ef591c5, type: 3}
      propertyPath: enemyObject_1_Pool.Array.data[10]
      value: 
      objectReference: {fileID: 0}
    - target: {fileID: 376274515878932857, guid: 63ab09bedf8b11b4daf84b1c2ef591c5, type: 3}
      propertyPath: enemyObject_1_Pool.Array.data[11]
      value: 
      objectReference: {fileID: 0}
    - target: {fileID: 376274515878932857, guid: 63ab09bedf8b11b4daf84b1c2ef591c5, type: 3}
      propertyPath: enemyObject_1_Pool.Array.data[12]
      value: 
      objectReference: {fileID: 0}
    - target: {fileID: 376274515878932857, guid: 63ab09bedf8b11b4daf84b1c2ef591c5, type: 3}
      propertyPath: enemyObject_1_Pool.Array.data[13]
      value: 
      objectReference: {fileID: 0}
    - target: {fileID: 376274515878932857, guid: 63ab09bedf8b11b4daf84b1c2ef591c5, type: 3}
      propertyPath: enemyObject_1_Pool.Array.data[14]
      value: 
      objectReference: {fileID: 0}
    - target: {fileID: 471857618084339627, guid: 63ab09bedf8b11b4daf84b1c2ef591c5, type: 3}
      propertyPath: m_RootOrder
      value: 6
      objectReference: {fileID: 0}
    - target: {fileID: 471857618084339627, guid: 63ab09bedf8b11b4daf84b1c2ef591c5, type: 3}
      propertyPath: m_LocalPosition.x
      value: 0
      objectReference: {fileID: 0}
    - target: {fileID: 471857618084339627, guid: 63ab09bedf8b11b4daf84b1c2ef591c5, type: 3}
      propertyPath: m_LocalPosition.y
      value: 0
      objectReference: {fileID: 0}
    - target: {fileID: 471857618084339627, guid: 63ab09bedf8b11b4daf84b1c2ef591c5, type: 3}
      propertyPath: m_LocalPosition.z
      value: 0
      objectReference: {fileID: 0}
    - target: {fileID: 471857618084339627, guid: 63ab09bedf8b11b4daf84b1c2ef591c5, type: 3}
      propertyPath: m_LocalRotation.w
      value: 1
      objectReference: {fileID: 0}
    - target: {fileID: 471857618084339627, guid: 63ab09bedf8b11b4daf84b1c2ef591c5, type: 3}
      propertyPath: m_LocalRotation.x
      value: 0
      objectReference: {fileID: 0}
    - target: {fileID: 471857618084339627, guid: 63ab09bedf8b11b4daf84b1c2ef591c5, type: 3}
      propertyPath: m_LocalRotation.y
      value: 0
      objectReference: {fileID: 0}
    - target: {fileID: 471857618084339627, guid: 63ab09bedf8b11b4daf84b1c2ef591c5, type: 3}
      propertyPath: m_LocalRotation.z
      value: 0
      objectReference: {fileID: 0}
    - target: {fileID: 471857618084339627, guid: 63ab09bedf8b11b4daf84b1c2ef591c5, type: 3}
      propertyPath: m_LocalEulerAnglesHint.x
      value: 0
      objectReference: {fileID: 0}
    - target: {fileID: 471857618084339627, guid: 63ab09bedf8b11b4daf84b1c2ef591c5, type: 3}
      propertyPath: m_LocalEulerAnglesHint.y
      value: 0
      objectReference: {fileID: 0}
    - target: {fileID: 471857618084339627, guid: 63ab09bedf8b11b4daf84b1c2ef591c5, type: 3}
      propertyPath: m_LocalEulerAnglesHint.z
      value: 0
      objectReference: {fileID: 0}
    - target: {fileID: 6955667812465858230, guid: 63ab09bedf8b11b4daf84b1c2ef591c5, type: 3}
      propertyPath: m_Name
      value: StageEditor
      objectReference: {fileID: 0}
    - target: {fileID: 7501156303192878312, guid: 63ab09bedf8b11b4daf84b1c2ef591c5, type: 3}
      propertyPath: stageNum
      value: 1
      objectReference: {fileID: 0}
    - target: {fileID: 7501156303192878312, guid: 63ab09bedf8b11b4daf84b1c2ef591c5, type: 3}
      propertyPath: worldNum
      value: 2
      objectReference: {fileID: 0}
    - target: {fileID: 7501156303192878312, guid: 63ab09bedf8b11b4daf84b1c2ef591c5, type: 3}
      propertyPath: gridSize.x
      value: 22
      objectReference: {fileID: 0}
    - target: {fileID: 7501156303192878312, guid: 63ab09bedf8b11b4daf84b1c2ef591c5, type: 3}
      propertyPath: gridSize.y
      value: 14
      objectReference: {fileID: 0}
    - target: {fileID: 7501156303192878312, guid: 63ab09bedf8b11b4daf84b1c2ef591c5, type: 3}
      propertyPath: objectsLayer
      value: 
      objectReference: {fileID: 0}
    - target: {fileID: 7501156303192878312, guid: 63ab09bedf8b11b4daf84b1c2ef591c5, type: 3}
      propertyPath: areaLayers.Array.size
      value: 0
      objectReference: {fileID: 0}
    - target: {fileID: 7501156303192878312, guid: 63ab09bedf8b11b4daf84b1c2ef591c5, type: 3}
      propertyPath: areaLayers.Array.data[0]
      value: 
      objectReference: {fileID: 0}
    - target: {fileID: 7501156303192878312, guid: 63ab09bedf8b11b4daf84b1c2ef591c5, type: 3}
      propertyPath: areaLayers.Array.data[1]
      value: 
      objectReference: {fileID: 0}
    - target: {fileID: 7501156303192878312, guid: 63ab09bedf8b11b4daf84b1c2ef591c5, type: 3}
      propertyPath: areaLayers.Array.data[2]
      value: 
      objectReference: {fileID: 0}
    - target: {fileID: 7501156303192878312, guid: 63ab09bedf8b11b4daf84b1c2ef591c5, type: 3}
      propertyPath: areaLayers.Array.data[3]
      value: 
      objectReference: {fileID: 0}
    - target: {fileID: 7501156303192878312, guid: 63ab09bedf8b11b4daf84b1c2ef591c5, type: 3}
      propertyPath: areaLayers.Array.data[4]
      value: 
      objectReference: {fileID: 0}
    - target: {fileID: 7501156303192878312, guid: 63ab09bedf8b11b4daf84b1c2ef591c5, type: 3}
      propertyPath: areaLayers.Array.data[5]
      value: 
      objectReference: {fileID: 0}
    - target: {fileID: 7501156303192878312, guid: 63ab09bedf8b11b4daf84b1c2ef591c5, type: 3}
      propertyPath: blockLayers.Array.data[0]
      value: 
      objectReference: {fileID: 0}
    - target: {fileID: 7501156303192878312, guid: 63ab09bedf8b11b4daf84b1c2ef591c5, type: 3}
      propertyPath: blockLayers.Array.data[1]
      value: 
      objectReference: {fileID: 0}
    - target: {fileID: 7501156303192878312, guid: 63ab09bedf8b11b4daf84b1c2ef591c5, type: 3}
      propertyPath: blockLayers.Array.data[2]
      value: 
      objectReference: {fileID: 0}
    - target: {fileID: 7501156303192878312, guid: 63ab09bedf8b11b4daf84b1c2ef591c5, type: 3}
      propertyPath: blockLayers.Array.data[3]
      value: 
      objectReference: {fileID: 0}
    m_RemovedComponents: []
    m_RemovedGameObjects: []
    m_AddedGameObjects: []
    m_AddedComponents: []
  m_SourcePrefab: {fileID: 100100000, guid: 63ab09bedf8b11b4daf84b1c2ef591c5, type: 3}
--- !u!1001 &326876024
PrefabInstance:
  m_ObjectHideFlags: 0
  serializedVersion: 2
  m_Modification:
    serializedVersion: 3
    m_TransformParent: {fileID: 0}
    m_Modifications:
    - target: {fileID: 644269559358785517, guid: 3301f67f691a99944b906841d4928915, type: 3}
      propertyPath: m_RootOrder
      value: 2
      objectReference: {fileID: 0}
    - target: {fileID: 644269559358785517, guid: 3301f67f691a99944b906841d4928915, type: 3}
      propertyPath: m_LocalPosition.x
      value: 0
      objectReference: {fileID: 0}
    - target: {fileID: 644269559358785517, guid: 3301f67f691a99944b906841d4928915, type: 3}
      propertyPath: m_LocalPosition.y
      value: 0
      objectReference: {fileID: 0}
    - target: {fileID: 644269559358785517, guid: 3301f67f691a99944b906841d4928915, type: 3}
      propertyPath: m_LocalPosition.z
      value: 0
      objectReference: {fileID: 0}
    - target: {fileID: 644269559358785517, guid: 3301f67f691a99944b906841d4928915, type: 3}
      propertyPath: m_LocalRotation.w
      value: 1
      objectReference: {fileID: 0}
    - target: {fileID: 644269559358785517, guid: 3301f67f691a99944b906841d4928915, type: 3}
      propertyPath: m_LocalRotation.x
      value: 0
      objectReference: {fileID: 0}
    - target: {fileID: 644269559358785517, guid: 3301f67f691a99944b906841d4928915, type: 3}
      propertyPath: m_LocalRotation.y
      value: 0
      objectReference: {fileID: 0}
    - target: {fileID: 644269559358785517, guid: 3301f67f691a99944b906841d4928915, type: 3}
      propertyPath: m_LocalRotation.z
      value: 0
      objectReference: {fileID: 0}
    - target: {fileID: 644269559358785517, guid: 3301f67f691a99944b906841d4928915, type: 3}
      propertyPath: m_LocalEulerAnglesHint.x
      value: 0
      objectReference: {fileID: 0}
    - target: {fileID: 644269559358785517, guid: 3301f67f691a99944b906841d4928915, type: 3}
      propertyPath: m_LocalEulerAnglesHint.y
      value: 0
      objectReference: {fileID: 0}
    - target: {fileID: 644269559358785517, guid: 3301f67f691a99944b906841d4928915, type: 3}
      propertyPath: m_LocalEulerAnglesHint.z
      value: 0
      objectReference: {fileID: 0}
    - target: {fileID: 2336441522166403188, guid: 3301f67f691a99944b906841d4928915, type: 3}
      propertyPath: m_Name
      value: FadeManager
      objectReference: {fileID: 0}
    m_RemovedComponents: []
    m_RemovedGameObjects: []
    m_AddedGameObjects: []
    m_AddedComponents: []
  m_SourcePrefab: {fileID: 100100000, guid: 3301f67f691a99944b906841d4928915, type: 3}
--- !u!1001 &1417979712
PrefabInstance:
  m_ObjectHideFlags: 0
  serializedVersion: 2
  m_Modification:
    serializedVersion: 3
    m_TransformParent: {fileID: 0}
    m_Modifications:
    - target: {fileID: 3090949912240116698, guid: 88ee138892e12f64a98ed200d933ced4, type: 3}
      propertyPath: m_RootOrder
      value: 5
      objectReference: {fileID: 0}
    - target: {fileID: 3090949912240116698, guid: 88ee138892e12f64a98ed200d933ced4, type: 3}
      propertyPath: m_LocalPosition.x
      value: 0
      objectReference: {fileID: 0}
    - target: {fileID: 3090949912240116698, guid: 88ee138892e12f64a98ed200d933ced4, type: 3}
      propertyPath: m_LocalPosition.y
      value: 0
      objectReference: {fileID: 0}
    - target: {fileID: 3090949912240116698, guid: 88ee138892e12f64a98ed200d933ced4, type: 3}
      propertyPath: m_LocalPosition.z
      value: 0
      objectReference: {fileID: 0}
    - target: {fileID: 3090949912240116698, guid: 88ee138892e12f64a98ed200d933ced4, type: 3}
      propertyPath: m_LocalRotation.w
      value: 1
      objectReference: {fileID: 0}
    - target: {fileID: 3090949912240116698, guid: 88ee138892e12f64a98ed200d933ced4, type: 3}
      propertyPath: m_LocalRotation.x
      value: 0
      objectReference: {fileID: 0}
    - target: {fileID: 3090949912240116698, guid: 88ee138892e12f64a98ed200d933ced4, type: 3}
      propertyPath: m_LocalRotation.y
      value: 0
      objectReference: {fileID: 0}
    - target: {fileID: 3090949912240116698, guid: 88ee138892e12f64a98ed200d933ced4, type: 3}
      propertyPath: m_LocalRotation.z
      value: 0
      objectReference: {fileID: 0}
    - target: {fileID: 3090949912240116698, guid: 88ee138892e12f64a98ed200d933ced4, type: 3}
      propertyPath: m_LocalEulerAnglesHint.x
      value: 0
      objectReference: {fileID: 0}
    - target: {fileID: 3090949912240116698, guid: 88ee138892e12f64a98ed200d933ced4, type: 3}
      propertyPath: m_LocalEulerAnglesHint.y
      value: 0
      objectReference: {fileID: 0}
    - target: {fileID: 3090949912240116698, guid: 88ee138892e12f64a98ed200d933ced4, type: 3}
      propertyPath: m_LocalEulerAnglesHint.z
      value: 0
      objectReference: {fileID: 0}
    - target: {fileID: 3095586566285510125, guid: 88ee138892e12f64a98ed200d933ced4, type: 3}
      propertyPath: m_Name
      value: SceneManager
      objectReference: {fileID: 0}
    m_RemovedComponents: []
    m_RemovedGameObjects: []
    m_AddedGameObjects: []
    m_AddedComponents: []
  m_SourcePrefab: {fileID: 100100000, guid: 88ee138892e12f64a98ed200d933ced4, type: 3}
--- !u!1001 &1542878339
PrefabInstance:
  m_ObjectHideFlags: 0
  serializedVersion: 2
  m_Modification:
    serializedVersion: 3
    m_TransformParent: {fileID: 0}
    m_Modifications:
    - target: {fileID: 8428590592320404692, guid: 0e4ae2064bf31e04183502f0b98e4886, type: 3}
      propertyPath: m_RootOrder
      value: 3
      objectReference: {fileID: 0}
    - target: {fileID: 8428590592320404692, guid: 0e4ae2064bf31e04183502f0b98e4886, type: 3}
      propertyPath: m_LocalPosition.x
      value: -7.2000003
      objectReference: {fileID: 0}
    - target: {fileID: 8428590592320404692, guid: 0e4ae2064bf31e04183502f0b98e4886, type: 3}
      propertyPath: m_LocalPosition.y
      value: 1.9830651
      objectReference: {fileID: 0}
    - target: {fileID: 8428590592320404692, guid: 0e4ae2064bf31e04183502f0b98e4886, type: 3}
      propertyPath: m_LocalPosition.z
      value: -0.0025702268
      objectReference: {fileID: 0}
    - target: {fileID: 8428590592320404692, guid: 0e4ae2064bf31e04183502f0b98e4886, type: 3}
      propertyPath: m_LocalRotation.w
      value: 1
      objectReference: {fileID: 0}
    - target: {fileID: 8428590592320404692, guid: 0e4ae2064bf31e04183502f0b98e4886, type: 3}
      propertyPath: m_LocalRotation.x
      value: 0
      objectReference: {fileID: 0}
    - target: {fileID: 8428590592320404692, guid: 0e4ae2064bf31e04183502f0b98e4886, type: 3}
      propertyPath: m_LocalRotation.y
      value: 0
      objectReference: {fileID: 0}
    - target: {fileID: 8428590592320404692, guid: 0e4ae2064bf31e04183502f0b98e4886, type: 3}
      propertyPath: m_LocalRotation.z
      value: 0
      objectReference: {fileID: 0}
    - target: {fileID: 8428590592320404692, guid: 0e4ae2064bf31e04183502f0b98e4886, type: 3}
      propertyPath: m_LocalEulerAnglesHint.x
      value: 0
      objectReference: {fileID: 0}
    - target: {fileID: 8428590592320404692, guid: 0e4ae2064bf31e04183502f0b98e4886, type: 3}
      propertyPath: m_LocalEulerAnglesHint.y
      value: 0
      objectReference: {fileID: 0}
    - target: {fileID: 8428590592320404692, guid: 0e4ae2064bf31e04183502f0b98e4886, type: 3}
      propertyPath: m_LocalEulerAnglesHint.z
      value: 0
      objectReference: {fileID: 0}
    - target: {fileID: 8951929600581010030, guid: 0e4ae2064bf31e04183502f0b98e4886, type: 3}
      propertyPath: m_Name
      value: GameManager
      objectReference: {fileID: 0}
    m_RemovedComponents: []
    m_RemovedGameObjects: []
    m_AddedGameObjects: []
    m_AddedComponents: []
  m_SourcePrefab: {fileID: 100100000, guid: 0e4ae2064bf31e04183502f0b98e4886, type: 3}
--- !u!1001 &1633118706
PrefabInstance:
  m_ObjectHideFlags: 0
  serializedVersion: 2
  m_Modification:
    serializedVersion: 3
    m_TransformParent: {fileID: 0}
    m_Modifications:
    - target: {fileID: 5382742741159101730, guid: 82dbbab01022a9844a95a5e8bbeb53e9, type: 3}
      propertyPath: m_Name
      value: InputManager
      objectReference: {fileID: 0}
    - target: {fileID: 6182315264798805218, guid: 82dbbab01022a9844a95a5e8bbeb53e9, type: 3}
      propertyPath: m_RootOrder
      value: 4
      objectReference: {fileID: 0}
    - target: {fileID: 6182315264798805218, guid: 82dbbab01022a9844a95a5e8bbeb53e9, type: 3}
      propertyPath: m_LocalPosition.x
      value: 287.25
      objectReference: {fileID: 0}
    - target: {fileID: 6182315264798805218, guid: 82dbbab01022a9844a95a5e8bbeb53e9, type: 3}
      propertyPath: m_LocalPosition.y
      value: 161.5
      objectReference: {fileID: 0}
    - target: {fileID: 6182315264798805218, guid: 82dbbab01022a9844a95a5e8bbeb53e9, type: 3}
      propertyPath: m_LocalPosition.z
      value: 0
      objectReference: {fileID: 0}
    - target: {fileID: 6182315264798805218, guid: 82dbbab01022a9844a95a5e8bbeb53e9, type: 3}
      propertyPath: m_LocalRotation.w
      value: 1
      objectReference: {fileID: 0}
    - target: {fileID: 6182315264798805218, guid: 82dbbab01022a9844a95a5e8bbeb53e9, type: 3}
      propertyPath: m_LocalRotation.x
      value: 0
      objectReference: {fileID: 0}
    - target: {fileID: 6182315264798805218, guid: 82dbbab01022a9844a95a5e8bbeb53e9, type: 3}
      propertyPath: m_LocalRotation.y
      value: 0
      objectReference: {fileID: 0}
    - target: {fileID: 6182315264798805218, guid: 82dbbab01022a9844a95a5e8bbeb53e9, type: 3}
      propertyPath: m_LocalRotation.z
      value: 0
      objectReference: {fileID: 0}
    - target: {fileID: 6182315264798805218, guid: 82dbbab01022a9844a95a5e8bbeb53e9, type: 3}
      propertyPath: m_LocalEulerAnglesHint.x
      value: 0
      objectReference: {fileID: 0}
    - target: {fileID: 6182315264798805218, guid: 82dbbab01022a9844a95a5e8bbeb53e9, type: 3}
      propertyPath: m_LocalEulerAnglesHint.y
      value: 0
      objectReference: {fileID: 0}
    - target: {fileID: 6182315264798805218, guid: 82dbbab01022a9844a95a5e8bbeb53e9, type: 3}
      propertyPath: m_LocalEulerAnglesHint.z
      value: 0
      objectReference: {fileID: 0}
    m_RemovedComponents: []
    m_RemovedGameObjects: []
    m_AddedGameObjects: []
    m_AddedComponents: []
  m_SourcePrefab: {fileID: 100100000, guid: 82dbbab01022a9844a95a5e8bbeb53e9, type: 3}
--- !u!1 &1687979731
GameObject:
  m_ObjectHideFlags: 0
  m_CorrespondingSourceObject: {fileID: 0}
  m_PrefabInstance: {fileID: 0}
  m_PrefabAsset: {fileID: 0}
  serializedVersion: 6
  m_Component:
  - component: {fileID: 1687979733}
  - component: {fileID: 1687979732}
  m_Layer: 0
  m_Name: Directional Light
  m_TagString: Untagged
  m_Icon: {fileID: 0}
  m_NavMeshLayer: 0
  m_StaticEditorFlags: 0
  m_IsActive: 1
--- !u!108 &1687979732
Light:
  m_ObjectHideFlags: 0
  m_CorrespondingSourceObject: {fileID: 0}
  m_PrefabInstance: {fileID: 0}
  m_PrefabAsset: {fileID: 0}
  m_GameObject: {fileID: 1687979731}
  m_Enabled: 1
  serializedVersion: 10
  m_Type: 1
  m_Shape: 0
  m_Color: {r: 1, g: 0.95686275, b: 0.8392157, a: 1}
  m_Intensity: 1
  m_Range: 10
  m_SpotAngle: 30
  m_InnerSpotAngle: 21.80208
  m_CookieSize: 10
  m_Shadows:
    m_Type: 2
    m_Resolution: -1
    m_CustomResolution: -1
    m_Strength: 1
    m_Bias: 0.05
    m_NormalBias: 0.4
    m_NearPlane: 0.2
    m_CullingMatrixOverride:
      e00: 1
      e01: 0
      e02: 0
      e03: 0
      e10: 0
      e11: 1
      e12: 0
      e13: 0
      e20: 0
      e21: 0
      e22: 1
      e23: 0
      e30: 0
      e31: 0
      e32: 0
      e33: 1
    m_UseCullingMatrixOverride: 0
  m_Cookie: {fileID: 0}
  m_DrawHalo: 0
  m_Flare: {fileID: 0}
  m_RenderMode: 0
  m_CullingMask:
    serializedVersion: 2
    m_Bits: 4294967295
  m_RenderingLayerMask: 1
  m_Lightmapping: 4
  m_LightShadowCasterMode: 0
  m_AreaSize: {x: 1, y: 1}
  m_BounceIntensity: 1
  m_ColorTemperature: 6570
  m_UseColorTemperature: 0
  m_BoundingSphereOverride: {x: 0, y: 0, z: 0, w: 0}
  m_UseBoundingSphereOverride: 0
  m_UseViewFrustumForShadowCasterCull: 1
  m_ShadowRadius: 0
  m_ShadowAngle: 0
--- !u!4 &1687979733
Transform:
  m_ObjectHideFlags: 0
  m_CorrespondingSourceObject: {fileID: 0}
  m_PrefabInstance: {fileID: 0}
  m_PrefabAsset: {fileID: 0}
  m_GameObject: {fileID: 1687979731}
  m_LocalRotation: {x: 0.40821788, y: -0.23456968, z: 0.10938163, w: 0.8754261}
  m_LocalPosition: {x: 0, y: 3, z: 0}
  m_LocalScale: {x: 1, y: 1, z: 1}
  m_ConstrainProportionsScale: 0
  m_Children: []
  m_Father: {fileID: 0}
  m_RootOrder: 1
  m_LocalEulerAnglesHint: {x: 50, y: -30, z: 0}
--- !u!1 &1878850229
GameObject:
  m_ObjectHideFlags: 0
  m_CorrespondingSourceObject: {fileID: 0}
  m_PrefabInstance: {fileID: 0}
  m_PrefabAsset: {fileID: 0}
  serializedVersion: 6
  m_Component:
  - component: {fileID: 1878850232}
  - component: {fileID: 1878850231}
  - component: {fileID: 1878850230}
  m_Layer: 0
  m_Name: Main Camera
  m_TagString: MainCamera
  m_Icon: {fileID: 0}
  m_NavMeshLayer: 0
  m_StaticEditorFlags: 0
  m_IsActive: 1
--- !u!81 &1878850230
AudioListener:
  m_ObjectHideFlags: 0
  m_CorrespondingSourceObject: {fileID: 0}
  m_PrefabInstance: {fileID: 0}
  m_PrefabAsset: {fileID: 0}
  m_GameObject: {fileID: 1878850229}
  m_Enabled: 1
--- !u!20 &1878850231
Camera:
  m_ObjectHideFlags: 0
  m_CorrespondingSourceObject: {fileID: 0}
  m_PrefabInstance: {fileID: 0}
  m_PrefabAsset: {fileID: 0}
  m_GameObject: {fileID: 1878850229}
  m_Enabled: 1
  serializedVersion: 2
  m_ClearFlags: 1
  m_BackGroundColor: {r: 0.19215687, g: 0.3019608, b: 0.4745098, a: 0}
  m_projectionMatrixMode: 1
  m_GateFitMode: 2
  m_FOVAxisMode: 0
  m_Iso: 200
  m_ShutterSpeed: 0.005
  m_Aperture: 16
  m_FocusDistance: 10
  m_FocalLength: 50
  m_BladeCount: 5
  m_Curvature: {x: 2, y: 11}
  m_BarrelClipping: 0.25
  m_Anamorphism: 0
  m_SensorSize: {x: 36, y: 24}
  m_LensShift: {x: 0, y: 0}
  m_NormalizedViewPortRect:
    serializedVersion: 2
    x: 0
    y: 0
    width: 1
    height: 1
  near clip plane: 0.3
  far clip plane: 1000
  field of view: 60
  orthographic: 0
  orthographic size: 5
  m_Depth: -1
  m_CullingMask:
    serializedVersion: 2
    m_Bits: 4294967295
  m_RenderingPath: -1
  m_TargetTexture: {fileID: 0}
  m_TargetDisplay: 0
  m_TargetEye: 3
  m_HDR: 1
  m_AllowMSAA: 1
  m_AllowDynamicResolution: 0
  m_ForceIntoRT: 0
  m_OcclusionCulling: 1
  m_StereoConvergence: 10
  m_StereoSeparation: 0.022
--- !u!4 &1878850232
Transform:
  m_ObjectHideFlags: 0
  m_CorrespondingSourceObject: {fileID: 0}
  m_PrefabInstance: {fileID: 0}
  m_PrefabAsset: {fileID: 0}
  m_GameObject: {fileID: 1878850229}
  m_LocalRotation: {x: 0, y: 0, z: 0, w: 1}
  m_LocalPosition: {x: 0, y: 0, z: -5.29}
  m_LocalScale: {x: 1, y: 1, z: 1}
  m_ConstrainProportionsScale: 0
  m_Children: []
  m_Father: {fileID: 0}
  m_RootOrder: 0
  m_LocalEulerAnglesHint: {x: 0, y: 0, z: 0}
